@relation dataSet

@attribute id numeric
@attribute clivi numeric
@attribute clt numeric
@attribute clwvi numeric
@attribute hfss numeric
@attribute pr numeric
@attribute prc numeric
@attribute prsn numeric
@attribute prw numeric
@attribute ps numeric
@attribute psl numeric
@attribute rlds numeric
@attribute rldscs numeric
@attribute rlntp numeric
@attribute rlntpcs numeric
@attribute rlus numeric
@attribute rlut numeric
@attribute rlutcs numeric
@attribute rsds numeric
@attribute rsdscs numeric
@attribute rsntp numeric
@attribute rsntpcs numeric
@attribute rsus numeric
@attribute rsuscs numeric
@attribute rsut numeric
@attribute rsutcs numeric
@attribute rtmt numeric
@attribute tas numeric
@attribute tauu numeric
@attribute tauv numeric
@attribute ts numeric
@attribute uas numeric
@attribute vas numeric
@attribute rsdt numeric

@data
231,522.200526,30735350,17653.5005,10043240,8.323922,7.438827,0,26438709.5,101115920000,101115915000.000016,389393995,375166810,278809370,283883925,451942550,291701215,296327835,296437860,337086545,357124115,393440600,14024285.5,16126308.5,77327362.5,41632748.5,83202177.5,297578360,-92739.603,14198.58875,298752520,-7722537.85,1197091,452230755
117,6019.21535,84108475,10127.87325,-1949113.6,1.421518,0.039997,1.420777,518993.475,67710905000,99229845000,129374110,102357750,139232225,146780800,193112560,169045790,176213495,376779800,426451115,111886535,117314515,301423845,341160870,355843630,350379000,-28399490.5,241524255,8240.3585,-35168.585,241215405,-139082.628715,-2292984.2,496489930
192,7707.93185,21258472.5,12453.681,20939382.5,0.001019,0,0,9124669.5,98044632000.000016,101643120000,297597685,292410265,248975250,262237440,403292405,265131730,277416180,208080365,219624275,176748930,184449090,86576805,91379922,111748985,104221980,-73397858,290133530,-88995.165,-42546.8015,289731155,-3005420.05,-2143009.4,303482850
181,6255.0698,73320755,9974.32135,-3422934.9,1.117528,0.031474,1.117526,387690.93,64283153500,99449570000,121820765,94400432.5,135355270,143306215,186642350,165339120,172884525,379609590,425266335,109093020,113260575,303687680,340213090,350630190,346401340,-27164375.5,239907910,23480.208,-53797.37,239043495,305684.19,-2039559.3,488804925
9,96251.29,89446170,160343.235,29592192.5,38.473141,14.879552,20.752155,8517268,100559505000,100568630000,286354465,236466805,183315975,216186515,335851615,204929145,235431685,30714213,57071292.5,41758527,65156596,3847580.35,7152051.5,45993580,23006179,-155074775,275213200,17307.4925,-8064.7605,277376905,245275.2,-195021.73,95847950
131,18656.106,79090302.5,51816.104,16963613,13.62734,11.832174,0,33494215,101334415000,101334410000,408378555,381892970,228427850,263649005,457254920,245239470,278131880,178709500,249849695,240891500,305134705,9463647,13443662.5,105347877.5,42422626,12244728,297825610,-86387.04,-35903.135,299621095,-6778548.85,-3132311.1,362832085
264,47122.066,95013540,80706.005,39874864.5,23.564522,9.553047,22.152884,5394482.5,100265383000,100265822500.000016,271465410,212274400,175294370,206324620,316509100,190709635,219600710,220358.85,365039.825,348772.2,471302.1,51136.47,84620.155,534760.75,413471.75,-190087540,270476530,-55434.419,-79232.775,273294650,-2465707.18,-3775993,1156856.4
268,1247.87715,29890035.5,27782.206,34150306,2.820651,2.742339,0,19070921.5,97169497000,101448295000.000016,337180175,328662280,263933395,270462950,419895830,277457260,283751160,189357265,211194030,212543615,229585005,34463020,38437313.5,76713455,59997972.5,-50499862,292846775,-70856.39,-41160.2035,292752970,-1334458.515,-1177375.95,303670855
77,6051.62445,84108475,10133.918,-1981516.45,1.420688,0.039898,1.419984,518995.625,67710905000,99229845000,129376778,102360455,139261760,146815320,193173390,169073960,176246420,376765010,426451505,111883742,117314335,301412020,341161195,355845375,350378160,-28430389.5,241535600,-34571.309,4075.84885,241235775,-2132785.25,919369.475,496488950
161,15372.4304,53722072.5,45863.951,10882949,7.754784,6.893894,0,26378827,101648549999.999984,101648549999.999984,380507965,361982980,248691320,265982605,442548490,265194655,281271970,287405735,354962400,355954145,416370760,13122140,16427787.5,103672805,44403466,110586825,295714115,-45752.7865,-30517.9695,297186295,-4740022.35,-2912505.75,479454285
172,6043.464,84108475,10150.2417,-1823438.25,1.419015,0.039537,1.418322,518942.15,67710905000,99229845000,129365867.5,102349377.5,139096940,146632630,192855490,168916975,176072365,376745880,426453275,111882490,117314545,301396700,341162615,355848135,350379455,-28274703.5,241476525,11941.6665,40075.792,241129075,1224375.3,1812802.25,496490400
4,6746.288,90295890,9355.0305,-22763713,2.105067,0.00417,2.105045,1680864.65,99269580000,101566467500,155573630,136458355,149476660,150759045,192776650,167180290,168397530,323854.7,407602.05,255576.95,283661.65,241285.5,303671.6,585287.7,557357.6,-166661480,242807745,-2493.9665,-41362.5815,240887635,271262.32,-880562.225,1104103.1
70,17439.3845,36103826.5,52172.675,130421057.5,8.905412,8.865434,0,28023041.5,100446700000,100817734000,397035035,391906615,256604995,282358830,502732325,271768020,295981565,328612165,368352950,354019820,386498625,59807415,67040237.5,118713248,87017625,103636915,303478890,-89946.735,-40500.2835,306339180,-2180619.1,-737455.907,494118175
43,79367.715,56678480,150263.735,7096567.3,28.797785,3.302722,0,16686344,101866777500,101866777500,324163360,295793535,218300605,244133330,387264375,239512570,263196535,273816880,375027040,336580575,426818015,13189140.5,18399391,136748360,48497132,120067565,286249050,29391.276,-7615.88475,287430090,2014581.85,-264556.645,496328505
140,23257.533,75360370,71230.4925,19710598,108.610526,108.01341,0,34524440.5,90301027500,100942930000,377252655,360676955,198456695,252145125,423563800,216125345,267661450,213997930,333300050,261613685,355123060,38947624,60660607.5,169301855,78335849.5,66817924.5,293546720,48375.0135,-60770.2575,293824550,900455.37,-1261437.2,452245135
176,65103.35,77195280,118300.63,-5605243.7,22.736581,3.538303,5.681167,8630920,98500695000,98500937000,282242720,233824875,186634780,210400975,322504885,213843415,235865260,224130015,355993220,278823235,393425330,13224114.5,21520111,168813405,56532280,89746093,274637575,98788.395,8599.0235,274572705,5969602.3,-125159.28,472402920
225,93260.19,85568570,150658.91,34570956.5,35.687264,11.044877,14.394306,8632494.5,101360657000,101373502500,284662565,238309870,186183740,218059365,338393175,206249355,235810520,33617586.5,56909180,44048340.5,65015783.5,4283024.2,7357730,43499591,22900626,-154044730,275648480,-16684.89,12920.344,277896990,-496063.25,1053147.82,95704210
163,6027.6235,84108475,10125.05025,-1779093.8,1.422341,0.040747,1.421648,518949.895,67710905000,99229845000,129362620,102346047.5,139050080,146580045,192763600,168872345,176022280,376746725,426452935,111882230,117314485,301397370,341162355,355847945,350379085,-28230300,241459900,-6358.1439,43203.5755,241098775,346281.8,2125052.95,496489990
210,26230.095,61148441.5,86312.104,15260442.5,27.986092,22.729581,0,23589423.5,101948670000,101948665000.000016,360464095,332726650,234302925,257302470,419888875,249420070,270523710,110603017.5,162285020,144850180,192068220,8055885,11956226,79367305,33007820,-91772657.5,291572145,-7677.071,35473.049,293299195,-722402,2035002.725,237014725
18,71856.885,96500512,118740.677,29159136,28.849372,3.186116,27.653974,4937791.6,100253142500,101369370000,262353410,200155580,169786910,198501890,297647060,190362785,217085610,8405056.5,15711714.65,10007282.75,15108409.35,3012122.55,5635057.8,17972096.5,12943236.25,-176150640,266302330,-117080.28,-82804.8,268968335,-1934334.05,-2061082.2,32184236
92,4724.38785,29212465.5,17042.9785,61295233,6.311348,6.306485,0,20169597,96682845000,100996455000,354686355,351338775,256194945,274062940,450241885,270525520,287643440,233912445,247866495,264275955,277039765,42572065,45111702,82523692.5,70062630,9820839,297412015,-24194.4575,-21263.13325,297529550,-380022.1,-671260.605,362870060
209,12272.13375,48827591,37979.465,16904527,15.957752,14.466598,0,27841372.5,100804117500,101542959999.999984,378843265,359927260,252644455,269481690,438783950,266848350,282369675,172951735,215880370,215790480,255193600,10455021.5,13112513.5,73514212.5,34841931.5,-36924880.5,295004455,-114261.135,-15932.4327,296551085,-6864311.75,-776130.91,303437665
143,6037.39275,84108475,10128.8083,-1800109.75,1.419905,0.039335,1.419213,518956.215,67710905000,99229845000,129363740,102347203,139072600,146604890,192806560,168893780,176045925,376748280,426453350,111883085,117314590,301398620,341162690,355847880,350379730,-28250946,241467870,28398.5735,32005.567,241112970,1861684.5,1112235.975,496490735
201,25939.316,98239860,32062.038,-14991394,6.916641,0.057503,6.916406,2758112.4,97966725000,101935597000.000016,183114945,149902500,145438415,158402315,212934760,166273070,178429595,11556575.65,16861342.25,10632865.75,14365058.65,5101914.75,7265262,17641804.5,13962392.5,-151438210,246742990,14173.37,-14881.6176,246203850,523465.925,-140868.568,32476665.5
168,64813.8625,83515770,115528.218,-3902354.4,22.396186,2.64551,7.795034,8428398.65,98130285000,98130285000,282316700,231116010,183495365,207588495,318880465,212493035,234848850,218306645,355836950,271902490,389649990,14395186,24697427.5,175390780,60005588.5,84275323,273879330,107630.84,-33387.131,273800645,6047644.85,-2854596.85,472159150
186,58876.0976,60314855,115349.174,15807142,51.538685,34.844972,0,25567293,102372277000,102372277000,367286940,342971100,226974680,255822060,426882020,243351620,270071190,112128585,160993165,145818465,191565320,8245557.25,12000223.25,78276583,33400915,-84623293,292761920,-39950.035,-16144.3983,294512145,-2809780.45,-761546.36,237004920
193,32170.549,73362240,41791.6585,-14491839.5,9.983014,0.482594,9.982305,2930867.8,97270700000,101699359499.999984,194806420,163985870,162471040,173295835,241698365,186495850,196650375,48751871,62993398,40990713,49874523.5,20663506.5,26139156.5,47059652.5,38315718,-137429585,255224475,92580.837,-114025.84415,255093785,1405445.65,-787149.38,96125915
97,29730.7585,60578045,99189.5,69113030,50.046047,48.979591,0,40815368.5,96953625000,100603030000,409314900,400369865,225527255,267099670,476469620,241983435,281296950,278040070,352497925,316846135,377602690,50603292.5,64154625,141140580,82371167.5,96267815,300619935,-57518.145,-45928.7953,302329515,-760602.035,-692186.8,479391830
184,30720.1305,57139145,79654.52,9458108.75,15.238604,8.939634,0,18894099.5,102046160000,102046160000,329426575,303170225,223444210,242767115,393024520,244004875,261738645,278857435,374292710,344226470,428322405,13395080.5,18208541.5,129477833,47140222,122938560,287154240,39124.13,8073.3845,288494100,3273699.5,667698.9725,496421280
113,1193.216985,13606322,15302.2375,71052990,5.569866,5.560588,0,16454186.5,94670035000,100995275000,345047460,341763360,275712875,281642075,455274710,289015290,294617320,239043115,253806345,265412265,278238005,43505846.5,46192753,81450175,68876160,-7542007.8,297816450,-133256.735,-135783.46,298628750,-1972316.2,-2340559.85,362923450
154,104795.855,94319280,256156.91,-22045793.5,34.285163,3.098896,12.516873,11577549,99148237499.999984,101856382500,303839220,240580710,181162420,212389290,321682385,199953955,228925100,17965027,53915318.5,32230902,64238828,2672391.55,7970144.85,55270054,23847140,-159320450,274327450,137131.022,90830.77,274268340,1128582.275,1226626.15,95903552.5
7,58989.96,66093557.5,156789.235,2939680.1,26.454821,4.104238,0.056863,18280477.5,101874820000,101875830000,328733230,293903835,213754975,239044240,379178835,235347310,258585580,240575330,373806640,310378815,427195315,11572158.5,18244993,162348810,48036227,98553397.5,285285215,97263.2225,-19470.7235,285917465,5684427.75,-1119820.125,496249515
25,12785.365,74124517.5,68601.6065,17329569.5,9.007951,6.696228,0,26733056,101684920000.000016,101684917500.000016,387606450,355098430,239124870,265197230,435639650,254735425,278985840,136063032.5,213936720,182118485,252651545,8402775,13445937.75,106335960,37115360,-57705583.5,294452035,-120328.345,-51832.08,296016585,-7592519.5,-3433387.3,303365815
208,63066.6855,82019935,145400.175,15288988.35,31.806425,15.466183,4.945001,12565974.25,100413125000,100413125000,307332650,263639480,196179655,225536610,357538970,221466255,248494745,227003760,368115675,290295535,413501515,11733510,19439993.5,173084180,52449600.5,93089195,280600665,197523.185,7490.564,281753275,8511186,-270025.95,487639635
183,7077.88285,61257703.5,11170.8717,-2301917.3,2.048987,0.160638,2.048964,537083.53,69418122000,98890705000,132599150,106833672.5,143704430,151323710,199058850,174574560,181769415,376507980,408381730,108975813,111438033,301206385,326705390,331098425,328563725,-36579292.5,243661730,-183508.2,100659.215,243022005,-2639420.05,2486231.5,469093700
86,22959.6096,58710230,55806.064,6884546,103.955899,103.679377,0,44937063.5,101018345000,101018345000,411359875,402928650,219378610,262880690,463648680,236338580,276508700,199702125,254920175,254290940,309031505,10595109,13594820,91441795,38856250,34972122,299703370,-64402.4235,-8735.1481,300664565,-5298263.5,-716881.335,362752500
53,2818.16215,80228942,4009.9041,-4419852.25,0.651574,0.00519,0.651573,257685.59,61168343000,99910525000,95438720,81535050,126716467.5,129434395,164599330,157264885,159839530,406893650,429329800,108572585,110329346,325514930,343463840,351066820,349270035,-19519889.5,233818330,-5633.24975,-1939.9475,231657800,-288958.57,299473.91,488811820
229,22227.0405,73895827.5,59334.9245,8226310.25,146.55843,146.332735,0,47487995.5,100927902500,100927900000,419418440,409143780,207456300,261646835,469769185,223202655,275433590,182930565,254363885,238090480,308918610,10012340,14174464.5,107225765.5,38826180,32358597,300330310,-62808.361,-6763.694375,301653745,-4738790.7,-507942.4775,362787015
262,23562.576,71981770,94954.927,7679197.85,78.29385,77.371138,0,35341037.5,93194080000,100992475000,378382695,362417800,206767065,253149085,419397750,224520565,268104935,201763365,299749680,251042500,332481870,30062741.5,44662700,143231565,63653665,45292083.5,293297910,-15760.6055,-9746.4327,292953250,-195263.975,-256576.2685,413044215
120,4051.6863,37045800,13292.1425,8819511.5,24.516311,24.373744,0,41632307,101098590000,101098588000,409263765,403585300,254429725,266466325,474184035,267926500,279254745,260449105,284174805,330389265,352446925,13082511,14408395,65731096.5,44139257.5,79368469.5,300087340,996.037625,6564.21365,302359885,112508.09,1529783.75,413026075
102,73007.685,57998665,151463.033,58513016.5,37.238389,19.315112,0,22418605.5,100120209999.999984,101535325000.000016,351497790,328009170,217155685,250917120,416476075,237596035,268414685,263893605,373707800,304673385,391142180,42983511,60889868,167758675,83239310,90859321,290988665,92590.455,-150935.68,292417875,635546.73,-1377633.35,496214015
100,89496.2975,82382718,188114.64,-5636032.5,50.570367,27.119924,2.305565,12029216.5,100705405000,100998895000,304467680,263318765,192873990,225705930,358517070,211177280,241474015,31699426.5,57119210,43208028,66463998.5,4041568.1,7270007,44455662,21616070,-159837730,280317995,182079.005,68291.807,281868375,3044236.2,979781.02,95795210
137,67.895172,43813613.5,21245.255,16024228,2.983169,2.295825,0,16832171.5,102279005000,102279000000,343810730,317395935,257537160,264015285,412984710,273767350,279656240,310478480,375584470,373350270,429457490,14193976.25,17397467.5,100099980,45050790,120123975,290036805,-31700.7825,33243.9835,292087065,-2729605.15,3269141,493991305
101,14160.235,96962315,20119.542,4407050.55,5.008827,0.14815,5.008767,2257223.5,100918997000,101225480000,180464095,151335250,157386185,164668700,223031525,171484560,178338425,0,0,0,0,0,0,0,0,-171484560,249556985,-15303.6885,-23136.175265,249801370,-1059343.885,-2024268.45,0
134,50603.404,81897370,69559.5185,11679357.5,23.11831,11.199827,17.454933,7444732.45,97832965000,97832963000,260978635,229887715,188856730,209726110,327745465,217515955,236877675,281462670,357895180,326187790,392779585,16834164.5,21762228.5,122150235,56876612,132442265,274430875,81481.813,-6629.47795,275683075,4342007.15,-654063.025,472108460
146,46120.5575,80530875,70032.794,3362687.2,16.500655,2.150769,15.919528,6301904.25,96014176000,97787250000,257868485,211776100,177252370,199845030,301927340,204894350,225961325,263157220,361448115,197985010,245476080,132145795,177727185,243918105,197170885,20433830.5,269703780,-17252.3385,9953.679,270008955,-897630,603013.935,469246270
87,169294.625,90296410,302580.875,71026247.5,79.784008,33.86641,2.495437,18339897.5,102168352500,102168352500,348478480,298747060,186535860,241722875,404610550,206100600,256598130,43581552.5,105258190,67438395,124159900,4102896.65,9911391.5,87445365,31855033,-127187085,285307530,31756.657,-942.6995,290586165,1443775.05,-565187.085,166358885
167,3367.7076,87104635,5494.85495,-4278996.8,0.869777,0.008513,0.869776,264443.55,60329435000,99893723000,101175420,81313820,127599555,131876375,169024020,158317435,162378350,397290725,429019870,107591262.5,110259673,317832595,343215895,352064000,349343015,-21565696.5,234608510,-28673.3785,6224.07095,233227875,-1070403.4,701325.26,488815730
212,3143.15825,39303175,39755.4675,37475849,22.902732,22.852436,0,39086374,100039160000,101048280000,403538240,395884400,255117675,269945760,464897840,268983560,283087785,217308765,258671660,262300155,298666630,22353698.5,26662048.5,84603755,48966557,9169143.5,299705650,-200060.3,-119567.005,300893780,-2787088.15,-1806630.85,362756475
17,2402.6948,40696565.5,29678.2865,14372795,6.390589,5.469017,0,20413638.5,102395440000,102395435000,348075440,328173875,252951915,261283635,418573275,269271130,276876985,311406425,371220195,375715210,428340240,14492283.25,17541502,97549535,45915001,127010775,291367950,-47935.7125,10879.9455,293074310,-4146542.8,383172.8,493831435
124,38.967011,52265538,29486.565,16438365,8.465643,6.552341,0,31483996.5,101309022499.999984,101309019500,393630325,370261015,266527800,272056390,446184290,280035235,285079605,259817330,326736680,334621920,391217665,11984670.5,15365151,98985772.5,43435820,73229875,295783120,-46529.7475,39303.15,297791890,-4735291.65,4164973.5,452250890
24,12692.2115,47695971.5,15847.065,9146548.5,2.341114,1.157255,2.329207,4069367,88268673000.000016,103144465000,214840615,195331555,191119530,200847895,288984720,212556785,221636355,101820030,116642115,97920530,108938025,27590093,31803053,58224796.5,47390934,-103933445,266867735,137520.06,-76003.205,266406270,2521000.25,-1273275.2,166848140
20,81748.347,89414909.5,156082.375,1134283.21,30.810395,2.158008,18.836227,6449606,99289394999.999984,101620239999.999984,256995840,205493355,180110230,201841810,294512330,199867430,220062525,33121074,58750187,42007523,63766118,5217220.7,9311946,45490626.5,24112399,-149716735,266827225,291105.735,44008.2495,268175400,2280839.25,525780.365,95641320
94,36438.292,58456500,116361.68,22335305.5,9.983883,8.432676,0.00536,19065227.5,101706102000,102267005000,325042600,298232135,220272400,242754205,376862015,237411800,258226795,111628802,164303185,138361295,182978420,14735018.5,21688040,85444692.5,41650640.5,-85986885,285013930,-11788.6445,-53574.3115,285080080,-374146.785,-738391.83,236869600